^G:\CSHARP\TESLACOIL\TESLACOIL\TESLACOIL\FORM1.RESX|G:\CSHARP\TESLACOIL\TESLACOIL\TESLACOIL\PROPERTIES\RESOURCES.RESX
G:\CSHARP\TESLACOIL\TESLACOIL\TESLACOIL\OBJ\X86\RELEASE\TESLACOIL.FORM1.RESOURCES
G:\CSHARP\TESLACOIL\TESLACOIL\TESLACOIL\OBJ\X86\RELEASE\TESLACOIL.PROPERTIES.RESOURCES.RESOURCES
