^G:\CSHARP\TED\TERRARIAED\TERRARIAED\FORM1.RESX|G:\CSHARP\TED\TERRARIAED\TERRARIAED\PROPERTIES\RESOURCES.RESX
G:\CSHARP\TED\TERRARIAED\TERRARIAED\OBJ\X86\DEBUG\TERRARIAED.FORM1.RESOURCES
G:\CSHARP\TED\TERRARIAED\TERRARIAED\OBJ\X86\DEBUG\TERRARIAED.PROPERTIES.RESOURCES.RESOURCES
^G:\CSHARP\TED\TERRARIAED\TERRARIAED\FORM1.RESX|G:\CSHARP\TED\TERRARIAED\TERRARIAED\PROPERTIES\RESOURCES.RESX|G:\CSHARP\TED\TERRARIAED\TERRARIAED\WINDOW\FILEWINDOW.RESX
G:\CSHARP\TED\TERRARIAED\TERRARIAED\OBJ\X86\DEBUG\TERRARIAED.FORM1.RESOURCES
G:\CSHARP\TED\TERRARIAED\TERRARIAED\OBJ\X86\DEBUG\TERRARIAED.PROPERTIES.RESOURCES.RESOURCES
G:\CSHARP\TED\TERRARIAED\TERRARIAED\OBJ\X86\DEBUG\TERRARIAED.WINDOW.FILEWINDOW.RESOURCES
